^C:\USERS\ADMINISTRATOR\DOCUMENTS\VISUAL STUDIO 10\PROJECTS\PHASE 10\PHASE 10\PHASE 10.CPP
/c /ZI /nologo /W3 /WX- /Od /Oy- /D WIN32 /D _DEBUG /D _CONSOLE /D _UNICODE /D UNICODE /Gm /EHsc /RTC1 /MDd /GS /fp:precise /Zc:wchar_t /Zc:forScope /Fo"Debug\\" /Fd"Debug\vc100.pdb" /Gd /TP /analyze- /errorReport:prompt C:\USERS\ADMINISTRATOR\DOCUMENTS\VISUAL STUDIO 10\PROJECTS\PHASE 10\PHASE 10\PHASE 10.CPP
^C:\USERS\ADMINISTRATOR\DOCUMENTS\VISUAL STUDIO 10\PROJECTS\PHASE 10\PHASE 10\DICE.CPP
/c /ZI /nologo /W3 /WX- /Od /Oy- /D WIN32 /D _DEBUG /D _CONSOLE /D _UNICODE /D UNICODE /Gm /EHsc /RTC1 /MDd /GS /fp:precise /Zc:wchar_t /Zc:forScope /Fo"Debug\\" /Fd"Debug\vc100.pdb" /Gd /TP /analyze- /errorReport:prompt C:\USERS\ADMINISTRATOR\DOCUMENTS\VISUAL STUDIO 10\PROJECTS\PHASE 10\PHASE 10\DICE.CPP
^C:\USERS\ADMINISTRATOR\DOCUMENTS\VISUAL STUDIO 10\PROJECTS\PHASE 10\PHASE 10\RANDGEN.CPP
/c /ZI /nologo /W3 /WX- /Od /Oy- /D WIN32 /D _DEBUG /D _CONSOLE /D _UNICODE /D UNICODE /Gm /EHsc /RTC1 /MDd /GS /fp:precise /Zc:wchar_t /Zc:forScope /Fo"Debug\\" /Fd"Debug\vc100.pdb" /Gd /TP /analyze- /errorReport:prompt C:\USERS\ADMINISTRATOR\DOCUMENTS\VISUAL STUDIO 10\PROJECTS\PHASE 10\PHASE 10\RANDGEN.CPP
^C:\USERS\ADMINISTRATOR\DROPBOX\PHASE10\JACKIE\PHASE 10\PHASE 10\DICE.CPP
/c /ZI /nologo /W3 /WX- /Od /Oy- /D WIN32 /D _DEBUG /D _CONSOLE /D _UNICODE /D UNICODE /Gm /EHsc /RTC1 /MDd /GS /fp:precise /Zc:wchar_t /Zc:forScope /Fo"Debug\\" /Fd"Debug\vc100.pdb" /Gd /TP /analyze- /errorReport:prompt C:\USERS\ADMINISTRATOR\DROPBOX\PHASE10\JACKIE\PHASE 10\PHASE 10\DICE.CPP
^C:\USERS\ADMINISTRATOR\DROPBOX\PHASE10\JACKIE\PHASE 10\PHASE 10\PHASE 10.CPP
/c /ZI /nologo /W3 /WX- /Od /Oy- /D WIN32 /D _DEBUG /D _CONSOLE /D _UNICODE /D UNICODE /Gm /EHsc /RTC1 /MDd /GS /fp:precise /Zc:wchar_t /Zc:forScope /Fo"Debug\\" /Fd"Debug\vc100.pdb" /Gd /TP /analyze- /errorReport:prompt C:\USERS\ADMINISTRATOR\DROPBOX\PHASE10\JACKIE\PHASE 10\PHASE 10\PHASE 10.CPP
^C:\USERS\ADMINISTRATOR\DROPBOX\PHASE10\JACKIE\PHASE 10\PHASE 10\RANDGEN.CPP
/c /ZI /nologo /W3 /WX- /Od /Oy- /D WIN32 /D _DEBUG /D _CONSOLE /D _UNICODE /D UNICODE /Gm /EHsc /RTC1 /MDd /GS /fp:precise /Zc:wchar_t /Zc:forScope /Fo"Debug\\" /Fd"Debug\vc100.pdb" /Gd /TP /analyze- /errorReport:prompt C:\USERS\ADMINISTRATOR\DROPBOX\PHASE10\JACKIE\PHASE 10\PHASE 10\RANDGEN.CPP
^C:\USERS\ADMINISTRATOR\DROPBOX\PHASE10\JACKIE\PHASE 10\PHASE 10\PLAYER.CPP
/c /ZI /nologo /W3 /WX- /Od /Oy- /D WIN32 /D _DEBUG /D _CONSOLE /D _UNICODE /D UNICODE /Gm /EHsc /RTC1 /MDd /GS /fp:precise /Zc:wchar_t /Zc:forScope /Fo"Debug\\" /Fd"Debug\vc100.pdb" /Gd /TP /analyze- /errorReport:prompt C:\USERS\ADMINISTRATOR\DROPBOX\PHASE10\JACKIE\PHASE 10\PHASE 10\PLAYER.CPP
^C:\USERS\ADMINISTRATOR\DROPBOX\PHASE10\JACKIE\PHASE 10\PHASE 10\CARDSLAID.CPP
/c /ZI /nologo /W3 /WX- /Od /Oy- /D WIN32 /D _DEBUG /D _CONSOLE /D _UNICODE /D UNICODE /Gm /EHsc /RTC1 /MDd /GS /fp:precise /Zc:wchar_t /Zc:forScope /Fo"Debug\\" /Fd"Debug\vc100.pdb" /Gd /TP /analyze- /errorReport:prompt C:\USERS\ADMINISTRATOR\DROPBOX\PHASE10\JACKIE\PHASE 10\PHASE 10\CARDSLAID.CPP
^C:\USERS\ADMINISTRATOR\DROPBOX\PHASE10\JACKIE\PHASE 10\PHASE 10\HAND.CPP
/c /ZI /nologo /W3 /WX- /Od /Oy- /D WIN32 /D _DEBUG /D _CONSOLE /D _UNICODE /D UNICODE /Gm /EHsc /RTC1 /MDd /GS /fp:precise /Zc:wchar_t /Zc:forScope /Fo"Debug\\" /Fd"Debug\vc100.pdb" /Gd /TP /analyze- /errorReport:prompt C:\USERS\ADMINISTRATOR\DROPBOX\PHASE10\JACKIE\PHASE 10\PHASE 10\HAND.CPP
^C:\USERS\ADMINISTRATOR\DROPBOX\PHASE10\JACKIE\PHASE 10\PHASE 10\CARD.CPP
/c /ZI /nologo /W3 /WX- /Od /Oy- /D WIN32 /D _DEBUG /D _CONSOLE /D _UNICODE /D UNICODE /Gm /EHsc /RTC1 /MDd /GS /fp:precise /Zc:wchar_t /Zc:forScope /Fo"Debug\\" /Fd"Debug\vc100.pdb" /Gd /TP /analyze- /errorReport:prompt C:\USERS\ADMINISTRATOR\DROPBOX\PHASE10\JACKIE\PHASE 10\PHASE 10\CARD.CPP
^C:\USERS\ADMINISTRATOR\DROPBOX\PHASE10\JACKIE\PHASE 10\PHASE 10\DYNAMICARRAY.CPP
/c /ZI /nologo /W3 /WX- /Od /Oy- /D WIN32 /D _DEBUG /D _CONSOLE /D _UNICODE /D UNICODE /Gm /EHsc /RTC1 /MDd /GS /fp:precise /Zc:wchar_t /Zc:forScope /Fo"Debug\\" /Fd"Debug\vc100.pdb" /Gd /TP /analyze- /errorReport:prompt C:\USERS\ADMINISTRATOR\DROPBOX\PHASE10\JACKIE\PHASE 10\PHASE 10\DYNAMICARRAY.CPP
^C:\USERS\ADMINISTRATOR\DROPBOX\PHASE10\JACKIE\PHASE 10\PHASE 10\MAIN.CPP
/c /ZI /nologo /W3 /WX- /Od /Oy- /D WIN32 /D _DEBUG /D _CONSOLE /D _UNICODE /D UNICODE /Gm /EHsc /RTC1 /MDd /GS /fp:precise /Zc:wchar_t /Zc:forScope /Fo"Debug\\" /Fd"Debug\vc100.pdb" /Gd /TP /analyze- /errorReport:prompt C:\USERS\ADMINISTRATOR\DROPBOX\PHASE10\JACKIE\PHASE 10\PHASE 10\MAIN.CPP
^C:\USERS\ADMINISTRATOR\DROPBOX\PHASE10\JACKIE\PHASE 10\PHASE 10\NODE.CPP
/c /ZI /nologo /W3 /WX- /Od /Oy- /D WIN32 /D _DEBUG /D _CONSOLE /D _UNICODE /D UNICODE /Gm /EHsc /RTC1 /MDd /GS /fp:precise /Zc:wchar_t /Zc:forScope /Fo"Debug\\" /Fd"Debug\vc100.pdb" /Gd /TP /analyze- /errorReport:prompt C:\USERS\ADMINISTRATOR\DROPBOX\PHASE10\JACKIE\PHASE 10\PHASE 10\NODE.CPP
^C:\USERS\ADMINISTRATOR\DROPBOX\PHASE10\JACKIE\PHASE 10\PHASE 10\STACK.CPP
/c /ZI /nologo /W3 /WX- /Od /Oy- /D WIN32 /D _DEBUG /D _CONSOLE /D _UNICODE /D UNICODE /Gm /EHsc /RTC1 /MDd /GS /fp:precise /Zc:wchar_t /Zc:forScope /Fo"Debug\\" /Fd"Debug\vc100.pdb" /Gd /TP /analyze- /errorReport:prompt C:\USERS\ADMINISTRATOR\DROPBOX\PHASE10\JACKIE\PHASE 10\PHASE 10\STACK.CPP
