^C:\USERS\ADMINISTRATOR\DOCUMENTS\VISUAL STUDIO 10\PROJECTS\PHASE 10\PHASE 10\DEBUG\PHASE 10_MANIFEST.RC
C:\USERS\ADMINISTRATOR\DOCUMENTS\VISUAL STUDIO 10\PROJECTS\PHASE 10\PHASE 10\DEBUG\PHASE 10.EXE.EMBED.MANIFEST
^C:\USERS\ADMINISTRATOR\DROPBOX\PHASE10\JACKIE\PHASE 10\PHASE 10\DEBUG\PHASE 10_MANIFEST.RC
C:\USERS\ADMINISTRATOR\DROPBOX\PHASE10\JACKIE\PHASE 10\PHASE 10\DEBUG\PHASE 10.EXE.EMBED.MANIFEST
