^C:\USERS\SCOOBAH36\DROPBOX\PHASE10\EKOW\PHASE 10\PHASE 10\PHASE 10\PHASE 10.CPP
C:\USERS\SCOOBAH36\DROPBOX\PHASE10\EKOW\PHASE 10\PHASE 10\PHASE 10\DEBUG\PHASE 10.OBJ
C:\USERS\SCOOBAH36\DROPBOX\PHASE10\EKOW\PHASE 10\PHASE 10\PHASE 10\DEBUG\VC100.PDB
