^C:\USERS\SCOOBAH36\DROPBOX\PHASE10\EKOW\PHASE 10\PHASE 10\PHASE 10\DEBUG\PHASE 10.EXE.EMBED.MANIFEST.RES|C:\USERS\SCOOBAH36\DROPBOX\PHASE10\EKOW\PHASE 10\PHASE 10\PHASE 10\DEBUG\PHASE 10.OBJ
C:\USERS\SCOOBAH36\DROPBOX\PHASE10\EKOW\PHASE 10\PHASE 10\DEBUG\PHASE 10.ILK
C:\USERS\SCOOBAH36\DROPBOX\PHASE10\EKOW\PHASE 10\PHASE 10\DEBUG\PHASE 10.EXE
C:\USERS\SCOOBAH36\DROPBOX\PHASE10\EKOW\PHASE 10\PHASE 10\PHASE 10\DEBUG\PHASE 10.EXE.INTERMEDIATE.MANIFEST
C:\USERS\SCOOBAH36\DROPBOX\PHASE10\EKOW\PHASE 10\PHASE 10\DEBUG\PHASE 10.PDB
