^C:\USERS\SCOOBAH36\DROPBOX\PHASE10\AJ\PHASE10\PHASE10\DEBUG\PHASE10_MANIFEST.RC
C:\USERS\SCOOBAH36\DROPBOX\PHASE10\AJ\PHASE10\PHASE10\DEBUG\PHASE10.EXE.EMBED.MANIFEST.RES
^C:\USERS\SCOOBAH36\DOCUMENTS\VISUAL STUDIO 2010\PROJECTS\PHASE10\AJ\PHASE10\PHASE10\DEBUG\PHASE10_MANIFEST.RC
C:\USERS\SCOOBAH36\DOCUMENTS\VISUAL STUDIO 2010\PROJECTS\PHASE10\AJ\PHASE10\PHASE10\DEBUG\PHASE10.EXE.EMBED.MANIFEST.RES
