^C:\USERS\ADMINISTRATOR\DOCUMENTS\VISUAL STUDIO 10\PROJECTS\PHASE 10\PHASE 10\DEBUG\DICE.OBJ|C:\USERS\ADMINISTRATOR\DOCUMENTS\VISUAL STUDIO 10\PROJECTS\PHASE 10\PHASE 10\DEBUG\PHASE 10.EXE.EMBED.MANIFEST.RES|C:\USERS\ADMINISTRATOR\DOCUMENTS\VISUAL STUDIO 10\PROJECTS\PHASE 10\PHASE 10\DEBUG\PHASE 10.OBJ|C:\USERS\ADMINISTRATOR\DOCUMENTS\VISUAL STUDIO 10\PROJECTS\PHASE 10\PHASE 10\DEBUG\RANDGEN.OBJ
C:\USERS\ADMINISTRATOR\DOCUMENTS\VISUAL STUDIO 10\PROJECTS\PHASE 10\DEBUG\PHASE 10.ILK
C:\USERS\ADMINISTRATOR\DOCUMENTS\VISUAL STUDIO 10\PROJECTS\PHASE 10\DEBUG\PHASE 10.EXE
C:\USERS\ADMINISTRATOR\DOCUMENTS\VISUAL STUDIO 10\PROJECTS\PHASE 10\PHASE 10\DEBUG\PHASE 10.EXE.INTERMEDIATE.MANIFEST
C:\USERS\ADMINISTRATOR\DOCUMENTS\VISUAL STUDIO 10\PROJECTS\PHASE 10\DEBUG\PHASE 10.PDB
^C:\USERS\ADMINISTRATOR\DROPBOX\PHASE10\JACKIE\PHASE 10\PHASE 10\DEBUG\DICE.OBJ|C:\USERS\ADMINISTRATOR\DROPBOX\PHASE10\JACKIE\PHASE 10\PHASE 10\DEBUG\PHASE 10.EXE.EMBED.MANIFEST.RES|C:\USERS\ADMINISTRATOR\DROPBOX\PHASE10\JACKIE\PHASE 10\PHASE 10\DEBUG\PHASE 10.OBJ|C:\USERS\ADMINISTRATOR\DROPBOX\PHASE10\JACKIE\PHASE 10\PHASE 10\DEBUG\PLAYER.OBJ|C:\USERS\ADMINISTRATOR\DROPBOX\PHASE10\JACKIE\PHASE 10\PHASE 10\DEBUG\RANDGEN.OBJ
C:\USERS\ADMINISTRATOR\DROPBOX\PHASE10\JACKIE\PHASE 10\DEBUG\PHASE 10.ILK
C:\USERS\ADMINISTRATOR\DROPBOX\PHASE10\JACKIE\PHASE 10\DEBUG\PHASE 10.EXE
C:\USERS\ADMINISTRATOR\DROPBOX\PHASE10\JACKIE\PHASE 10\PHASE 10\DEBUG\PHASE 10.EXE.INTERMEDIATE.MANIFEST
C:\USERS\ADMINISTRATOR\DROPBOX\PHASE10\JACKIE\PHASE 10\DEBUG\PHASE 10.PDB
