^C:\USERS\ADMINISTRATOR\DOCUMENTS\VISUAL STUDIO 10\PROJECTS\PHASE 10\PHASE 10\DEBUG\PHASE 10_MANIFEST.RC
/nologo /fo"Debug\Phase 10.exe.embed.manifest.res" "Debug\Phase 10_manifest.rc" /nologo /fo"Debug\Phase 10.exe.embed.manifest.res" C:\USERS\ADMINISTRATOR\DOCUMENTS\VISUAL STUDIO 10\PROJECTS\PHASE 10\PHASE 10\DEBUG\PHASE 10_MANIFEST.RC
^C:\USERS\ADMINISTRATOR\DROPBOX\PHASE10\JACKIE\PHASE 10\PHASE 10\DEBUG\PHASE 10_MANIFEST.RC
/nologo /fo"Debug\Phase 10.exe.embed.manifest.res" "Debug\Phase 10_manifest.rc" /nologo /fo"Debug\Phase 10.exe.embed.manifest.res" C:\USERS\ADMINISTRATOR\DROPBOX\PHASE10\JACKIE\PHASE 10\PHASE 10\DEBUG\PHASE 10_MANIFEST.RC
