^C:\USERS\SCOOBAH36\DROPBOX\PHASE10\AJ\PHASE10\PHASE10\AI.CPP
/c /ZI /nologo /W3 /WX- /Od /Oy- /D WIN32 /D _DEBUG /D _CONSOLE /D _UNICODE /D UNICODE /Gm /EHsc /RTC1 /MDd /GS /fp:precise /Zc:wchar_t /Zc:forScope /Fo"Debug\\" /Fd"Debug\vc100.pdb" /Gd /TP /analyze- /errorReport:prompt C:\USERS\SCOOBAH36\DROPBOX\PHASE10\AJ\PHASE10\PHASE10\AI.CPP
^C:\USERS\SCOOBAH36\DROPBOX\PHASE10\AJ\PHASE10\PHASE10\COMPPLAYER.CPP
/c /ZI /nologo /W3 /WX- /Od /Oy- /D WIN32 /D _DEBUG /D _CONSOLE /D _UNICODE /D UNICODE /Gm /EHsc /RTC1 /MDd /GS /fp:precise /Zc:wchar_t /Zc:forScope /Fo"Debug\\" /Fd"Debug\vc100.pdb" /Gd /TP /analyze- /errorReport:prompt C:\USERS\SCOOBAH36\DROPBOX\PHASE10\AJ\PHASE10\PHASE10\COMPPLAYER.CPP
^C:\USERS\SCOOBAH36\DROPBOX\PHASE10\AJ\PHASE10\PHASE10\RANDGEN.CPP
/c /ZI /nologo /W3 /WX- /Od /Oy- /D WIN32 /D _DEBUG /D _CONSOLE /D _UNICODE /D UNICODE /Gm /EHsc /RTC1 /MDd /GS /fp:precise /Zc:wchar_t /Zc:forScope /Fo"Debug\\" /Fd"Debug\vc100.pdb" /Gd /TP /analyze- /errorReport:prompt C:\USERS\SCOOBAH36\DROPBOX\PHASE10\AJ\PHASE10\PHASE10\RANDGEN.CPP
^C:\USERS\SCOOBAH36\DROPBOX\PHASE10\AJ\PHASE10\PHASE10\GAME.CPP
/c /ZI /nologo /W3 /WX- /Od /Oy- /D WIN32 /D _DEBUG /D _CONSOLE /D _UNICODE /D UNICODE /Gm /EHsc /RTC1 /MDd /GS /fp:precise /Zc:wchar_t /Zc:forScope /Fo"Debug\\" /Fd"Debug\vc100.pdb" /Gd /TP /analyze- /errorReport:prompt C:\USERS\SCOOBAH36\DROPBOX\PHASE10\AJ\PHASE10\PHASE10\GAME.CPP
